<?xml version="1.0" encoding="UTF-8"?>
<svg width="24px" height="24px" viewBox="0 0 24 24" version="1.1" xmlns="http://www.w3.org/2000/svg" xmlns:xlink="http://www.w3.org/1999/xlink">
    <!-- Generator: sketchtool 61.2 (101010) - https://sketch.com -->
    <title>7F0EC0D7-08E6-47B5-8B32-46384F5AA1E0</title>
    <desc>Created with sketchtool.</desc>
    <defs>
        <path d="M5.93696212,0 C6.00597514,0 6.06973717,0.0376956522 6.10199326,0.0975652174 L6.10199326,0.0975652174 L7.77855962,3.17234783 C8.07561568,3.71376087 8.07374032,4.33795652 7.77330863,4.88417391 C7.45337326,5.4666087 6.84275804,5.84836957 6.13987541,5.90528261 C6.06186069,5.90971739 6.00109922,5.91304348 5.93696212,5.91304348 C5.87282502,5.91304348 5.81206355,5.90971739 5.74905166,5.9063913 C5.6099004,5.89530435 5.47712535,5.87091304 5.348101,5.83691304 C5.41636388,6.32806522 5.32747211,6.83584783 5.07467441,7.28486957 C4.68272545,7.9815 3.99109494,8.42054348 3.17719136,8.49002174 C3.09767636,8.49630435 3.01778628,8.5 2.93677099,8.5 C2.85575571,8.5 2.77511549,8.49630435 2.69635063,8.49002174 C1.88207198,8.42017391 1.19081654,7.9815 0.798867578,7.28523913 C0.416295388,6.6056087 0.400167345,5.78997826 0.755359368,5.10332609 L0.755359368,5.10332609 L2.7698645,1.20921739 C2.80174551,1.1475 2.86625769,1.10869565 2.93677099,1.10869565 C3.0072843,1.10869565 3.07179647,1.1475 3.10367749,1.20958696 L3.10367749,1.20958696 L4.1058666,3.14684783 L5.77193098,0.0971956522 C5.80456214,0.037326087 5.8679491,0 5.93696212,0 Z M2.93677099,1.70036957 L1.08917236,5.27147826 C0.790616021,5.84836957 0.804868711,6.53428261 1.12667944,7.106 C1.45711679,7.69286957 2.04072691,8.06317391 2.72823164,8.12193478 C2.8647574,8.13376087 3.00803444,8.13376087 3.14531034,8.12193478 C3.83244,8.06354348 4.41605013,7.69323913 4.74648748,7.106 C5.06829821,6.53354348 5.08217582,5.84726087 4.78286935,5.27036957 L4.78286935,5.27036957 L3.9633397,3.68604348 L3.9633397,3.68604348 L3.95546322,3.67052174 L2.93677099,1.70036957 Z M1.61846023,5.33972957 L1.67578305,5.35795652 C1.76805046,5.40415217 1.80443232,5.5153913 1.75754848,5.60630435 C1.57001309,5.96958696 1.57901479,6.38534783 1.78267822,6.74752174 C1.99009236,7.1156087 2.35841186,7.34806522 2.79274382,7.38502174 C2.89588828,7.3938913 2.97240272,7.48332609 2.96340102,7.58458696 C2.95477439,7.68104348 2.87300896,7.75347826 2.77661577,7.75347826 C2.77136478,7.75347826 2.76611379,7.7531087 2.76048773,7.75273913 C2.19975692,7.70506522 1.72379211,7.40423913 1.45486636,6.9263913 C1.18969133,6.45519565 1.1784392,5.91304348 1.42373549,5.4388913 C1.47024426,5.3476087 1.58314057,5.3113913 1.67578305,5.35795652 Z M5.93696212,0.575043478 L4.42167619,3.34715217 C4.38004333,3.42143478 4.35303824,3.49867391 4.32753343,3.57591304 L4.32753343,3.57591304 L5.11705741,5.10221739 C5.16956731,5.2031087 5.21120017,5.30769565 5.24758204,5.4133913 C5.41448853,5.47843478 5.58739616,5.52241304 5.76442956,5.53682609 C5.88857799,5.54347826 5.99097231,5.54347826 6.10386861,5.53682609 C6.68522831,5.4898913 7.18444752,5.18019565 7.44399649,4.7078913 C7.6825415,4.27365217 7.68441686,3.77769565 7.44887241,3.34752174 L7.44887241,3.34752174 L5.93696212,0.575043478 Z" id="path-1"></path>
    </defs>
    <g id="DIOCOM-APP-Dark" stroke="none" stroke-width="1" fill="none" fill-rule="evenodd">
        <g id="01-My-home-v1" transform="translate(-73.000000, -655.000000)">
            <g id="UI-/-dark-/-Blocks-/-inactive" transform="translate(15.000000, 583.000000)">
                <g id="HIVO-/-Blocks-/-humidity-status" transform="translate(58.000000, 72.000000)">
                    <g id="HIVO-/-Icons-/-outline-/-humidity" transform="translate(8.000000, 8.000000)">
                        <mask id="mask-2" fill="white">
                            <use xlink:href="#path-1"></use>
                        </mask>
                        <use id="Combined-Shape" fill="#5B5B5B" fill-rule="nonzero" xlink:href="#path-1"></use>
                        <g id="Color-/-White" mask="url(#mask-2)" fill="#FFFFFF">
                            <g transform="translate(-8.000000, -8.000000)" id="🎨-Color">
                                <rect x="0" y="0" width="24" height="24"></rect>
                            </g>
                        </g>
                    </g>
                </g>
            </g>
        </g>
    </g>
</svg>